Missing value imputation • metflow2
…
#> 100

#> 1e-04

Note: Only the Subject and QC samples are imputed.

So now, the object2 have been imputed using KNN method.

If you want to output the peak_table and sample_info, you can use get_data() function.

##get the peak table
peak_table2 <- get_data(object = object2, slot = "peak.table")
peak_table2
#> # A tibble: 330 x 437
#>    name     mz    rt   QC11   QC12   QC22   QC23   QC24   QC25   QC26   QC27
#>    <chr> <dbl> <dbl>  <dbl>  <dbl>  <dbl>  <dbl>  <dbl>  <dbl>  <dbl>  <dbl>
#>  1 M72T…  72.1  47.1 2.17e6 2.31e6 1.91e6 2.55e6 2.72e6 4.27e6 4.07e6 2.73e6
#>  2 M86T…  86.1  93.8 9.28e6 1.00e7 3.87e6 3.96e6 3.98e6 5.41e6 3.65e6 3.77e6
#>  3 M86T…  86.1  74.6 2.98e6 3.40e6 1.95e6 2.72e6 2.74e6 3.54e6 2.49e6 2.70e6
#>  4 M90T…  89.5 654.  1.09e6 1.46e6 1.45e6 1.41e6 1.40e6 1.56e6 1.44e6 1.16e6
#>  5 M100… 100.  151.  7.78e6 8.39e6 7.28e6 7.94e6 8.34e6 9.00e6 8.64e6 8.47e6
#>  6 M104… 104.   30.9 1.20e7 1.36e7 1.29e7 1.43e7 1.36e7 1.34e7 1.35e7 1.37e7
#>  7 M105… 105.  136.  1.39e6 1.48e6 2.19e5 2.33e5 2.45e5 2.80e5 3.41e5 1.91e5
#>  8 M114… 114.  670.  1.33e5 1.55e5 8.58e5 6.48e5 6.64e5 6.45e5 7.09e5 6.97e5
#>  9 M114… 114.   37.6 1.73e6 1.62e6 1.84e6 2.00e6 1.80e6 2.19e6 1.96e6 2.11e6
#> 10 M116… 116.   33.8 2.15e6 2.14e6 1.35e6 1.56e6 1.49e6 1.93e6 1.84e6 1.51e6
#> # … with 320 more rows, and 426 more variables: QC28 <dbl>, QC29 <dbl>,
#> #   QC30 <dbl>, QC31 <dbl>, QC13 <dbl>, QC32 <dbl>, QC33 <dbl>, QC34 <dbl>,
#> #   QC35 <dbl>, QC14 <dbl>, QC15 <dbl>, QC16 <dbl>, QC17 <dbl>, QC18 <dbl>,
#> #   QC19 <dbl>, QC20 <dbl>, QC21 <dbl>, EC4349 <dbl>, EC7415 <dbl>,
#> #   ECFD103 <dbl>, EC3972 <dbl>, EC6120 <dbl>, EC6561 <dbl>, EC7522 <dbl>,
#> #   EC7401 <dbl>, EC34A1771 <dbl>, EC6594 <dbl>, EC53A2215 <dbl>,
#> #   EC47A2046 <dbl>, EC6557 <dbl>, EC6517 <dbl>, EC7221 <dbl>, EC7560 <dbl>,
#> #   EC4365 <dbl>, EC4182 <dbl>, ECA1469 <dbl>, EC4455 <dbl>, EC17A1458 <dbl>,
#> #   EC4641 <dbl>, EC6364 <dbl>, EC7460 <dbl>, EC6891 <dbl>, ECA1467 <dbl>,
…
##get the sample inforamtion
sample_info2 <- get_data(object = object2, slot = "sample.info")
sample_info2
#> # A tibble: 434 x 5
#>    sample.name injection.order class   batch group
#>    <chr>                 <dbl> <chr>   <dbl> <chr>
#>  1 QC11                      1 QC          1 QC   
#>  2 EC6225                    2 Subject     1 1    
#>  3 EC567                     3 Subject     1 0    
#>  4 EC5A1395                  4 Subject     1 1    
#>  5 EC4604                    5 Subject     1 1    
#>  6 EC7542                    6 Subject     1 1    
#>  7 EC7528                    7 Subject     1 1    
#>  8 EC6345                    8 Subject     1 1    
#>  9 EC6108                    9 Subject     1 1    
#> 10 QC12                     10 QC          1 QC   
#> # … with 424 more rows
…
