Other tools in metflow2 • metflow2
…
database <- metflow2::databaseName(server = "http://cts.fiehnlab.ucdavis.edu/service/convert")
#> databaseName() is deprecated, please use the trans_id_database() in tinyTools.
#> 225 databases are supported in server http://cts.fiehnlab.ucdavis.edu/service/convert for 'from'.
#> 226 databases are supported in server http://cts.fiehnlab.ucdavis.edu/service/convert for 'to'.
database$From
#> # A tibble: 225 x 1
#>    From             
#>    <chr>            
#>  1 AAA Chemistry    
#>  2 ABBLIS Chemicals 
#>  3 Abbott Labs      
#>  4 ABI Chem         
#>  5 AbMole Bioscience
#>  6 Acesobio         
#>  7 Achemica         
#>  8 Acorn PharmaTech 
#>  9 Active Biopharma 
#> 10 Adooq BioScience 
#> # … with 215 more rows
database$To
#> # A tibble: 226 x 1
#>    From             
#>    <chr>            
#>  1 AAA Chemistry    
#>  2 ABBLIS Chemicals 
#>  3 Abbott Labs      
#>  4 ABI Chem         
#>  5 AbMole Bioscience
#>  6 Acesobio         
#>  7 Achemica         
#>  8 Acorn PharmaTech 
#>  9 Active Biopharma 
#> 10 Adooq BioScience 
#> # … with 216 more rows
…
